{
  "images" : [
    {
      "idiom" : "universal",
      "filename" : "640 x 960.png",
      "scale" : "1x"
    },
    {
      "idiom" : "universal",
      "filename" : "640 x 1136.png",
      "scale" : "2x"
    },
    {
      "idiom" : "universal",
      "filename" : "750 x 1334.png",
      "scale" : "3x"
    }
  ],
  "info" : {
    "version" : 1,
    "author" : "xcode"
  }
}